{
    "type": "postgres",
    "host": "localhost",
    "port": 5439,
    "username": "postgres",
    "password": "",
    "database": "desafio",
    "entities": [
      "./src/modules/*/infra/typeorm/entities/*.ts"
    ]
}
